<svg xmlns="http://www.w3.org/2000/svg" viewBox="0 0 16 16">
  <title>profit bar graph</title>
  <g>
    <path d="M3.5,12A1.5,1.5,0,0,0,5,10.5a1.482,1.482,0,0,0-.088-.487L7.71,7.77A1.486,1.486,0,0,0,8.5,8,1.5,1.5,0,0,0,10,6.5a1.478,1.478,0,0,0-.019-.186l2.484-1.234A1.5,1.5,0,1,0,12,4a1.478,1.478,0,0,0,.019.186L9.535,5.419A1.49,1.49,0,0,0,7.088,6.986L4.29,9.231A1.486,1.486,0,0,0,3.5,9a1.5,1.5,0,0,0,0,3Z"/>
    <path d="M15.5,15H14V7a.5.5,0,0,0-1,0v8H9V9.5a.5.5,0,0,0-1,0V15H4V13.5a.5.5,0,0,0-1,0V15H1V.5a.5.5,0,0,0-1,0V15a1,1,0,0,0,1,1H15.5a.5.5,0,0,0,0-1Z"/>
  </g>
</svg>
